<?xml version="1.0" encoding="UTF-8" standalone="no"?>
<!-- Created with Inkscape (http://www.inkscape.org/) -->

<svg
   width="10"
   height="10"
   viewBox="0 0 2.6458333 2.6458333"
   version="1.1"
   id="svg5240"
   inkscape:version="1.2.2 (b0a8486541, 2022-12-01)"
   sodipodi:docname="goal.svg"
   xmlns:inkscape="http://www.inkscape.org/namespaces/inkscape"
   xmlns:sodipodi="http://sodipodi.sourceforge.net/DTD/sodipodi-0.dtd"
   xmlns="http://www.w3.org/2000/svg"
   xmlns:svg="http://www.w3.org/2000/svg">
  <sodipodi:namedview
     id="namedview5242"
     pagecolor="#ffffff"
     bordercolor="#000000"
     borderopacity="0.25"
     inkscape:showpageshadow="false"
     inkscape:pageopacity="0.0"
     inkscape:pagecheckerboard="0"
     inkscape:deskcolor="#d1d1d1"
     inkscape:document-units="mm"
     showgrid="false"
     inkscape:zoom="37.52329"
     inkscape:cx="5.8497003"
     inkscape:cy="4.7170704"
     inkscape:window-width="1366"
     inkscape:window-height="699"
     inkscape:window-x="0"
     inkscape:window-y="0"
     inkscape:window-maximized="1"
     inkscape:current-layer="layer1" />
  <defs
     id="defs5237">
    <filter
       inkscape:collect="always"
       style="color-interpolation-filters:sRGB"
       id="filter9049"
       x="-0.081599578"
       y="-0.06938806"
       width="1.1631992"
       height="1.1387761">
      <feGaussianBlur
         inkscape:collect="always"
         stdDeviation="0.030623814"
         id="feGaussianBlur9051" />
    </filter>
  </defs>
  <g
     inkscape:label="Layer 1"
     inkscape:groupmode="layer"
     id="layer1">
    <path
       style="mix-blend-mode:normal;fill:#000000;fill-opacity:1;stroke-width:0.264583;filter:url(#filter9049)"
       d="M 1.336234,0.79330717 1.2793839,1.3210988 0.87256413,1.2096572 1.176646,1.4730572 0.88925558,1.8525262 1.3531458,1.5243986 1.6656286,1.7451885 1.4577842,1.4354325 1.7732692,1.2937204 1.4338763,1.2852094 Z"
       id="path9047"
       sodipodi:nodetypes="ccccccccccc" />
    <path
       style="fill:#bf1100;fill-opacity:1;stroke-width:0.264583"
       d="M 1.308415,0.7232086 1.2515649,1.2510001 0.84474504,1.1395585 1.148827,1.4029585 0.86143649,1.7824275 1.3253268,1.4542999 1.6378096,1.6750898 1.4299652,1.3653338 1.7454502,1.2236217 1.4060573,1.2151107 Z"
       id="path9045"
       sodipodi:nodetypes="ccccccccccc" />
  </g>
</svg>
