<?xml version="1.0" encoding="UTF-8" standalone="no"?>
<!-- Created with Inkscape (http://www.inkscape.org/) -->

<svg
   width="10"
   height="10"
   viewBox="0 0 2.6458333 2.6458333"
   version="1.1"
   id="svg2675"
   inkscape:version="1.2.2 (b0a8486541, 2022-12-01)"
   sodipodi:docname="wall.svg"
   xmlns:inkscape="http://www.inkscape.org/namespaces/inkscape"
   xmlns:sodipodi="http://sodipodi.sourceforge.net/DTD/sodipodi-0.dtd"
   xmlns:xlink="http://www.w3.org/1999/xlink"
   xmlns="http://www.w3.org/2000/svg"
   xmlns:svg="http://www.w3.org/2000/svg">
  <sodipodi:namedview
     id="namedview2677"
     pagecolor="#ffffff"
     bordercolor="#000000"
     borderopacity="0.25"
     inkscape:showpageshadow="2"
     inkscape:pageopacity="0.0"
     inkscape:pagecheckerboard="0"
     inkscape:deskcolor="#d1d1d1"
     inkscape:document-units="mm"
     showgrid="false"
     inkscape:zoom="18.973355"
     inkscape:cx="-7.8267654"
     inkscape:cy="6.0084259"
     inkscape:window-width="1366"
     inkscape:window-height="699"
     inkscape:window-x="0"
     inkscape:window-y="0"
     inkscape:window-maximized="1"
     inkscape:current-layer="layer1" />
  <defs
     id="defs2672">
    <linearGradient
       inkscape:collect="always"
       id="linearGradient5067">
      <stop
         style="stop-color:#595959;stop-opacity:1;"
         offset="0"
         id="stop5063" />
      <stop
         style="stop-color:#bfbfbf;stop-opacity:1;"
         offset="1"
         id="stop5065" />
    </linearGradient>
    <linearGradient
       inkscape:collect="always"
       xlink:href="#linearGradient5067"
       id="linearGradient5069"
       x1="1.9945346"
       y1="1.8742056"
       x2="0.59002775"
       y2="0.59039927"
       gradientUnits="userSpaceOnUse" />
  </defs>
  <g
     inkscape:label="Layer 1"
     inkscape:groupmode="layer"
     id="layer1">
    <path
       id="rect5032"
       style="opacity:1;stroke-width:0.264583;fill:#333333;fill-opacity:1"
       transform="rotate(90)"
       d="M 5.2154064e-8,-2.6458333 H 2.6458333 L 2.229558,-2.229558 H 0.41627529 Z"
       sodipodi:nodetypes="ccccc" />
    <rect
       style="opacity:1;fill:url(#linearGradient5069);stroke-width:0.264583;fill-opacity:1"
       id="rect5026"
       width="1.8132827"
       height="1.8132827"
       x="0.41627529"
       y="0.41627529" />
    <path
       id="rect5028"
       style="opacity:1;stroke-width:0.264583;fill:#cbcbcb;fill-opacity:1"
       d="m 0,0 h 2.6458333 l -0.4162753,0.41627529 -1.81328271,0 z"
       sodipodi:nodetypes="ccccc" />
    <path
       id="path5036"
       style="opacity:1;stroke-width:0.264583;fill:#666666;fill-opacity:1"
       d="M 0,2.6458333 H 2.6458333 L 2.229558,2.229558 l -1.81328271,0 z"
       sodipodi:nodetypes="ccccc" />
    <path
       id="path5038"
       style="opacity:1;stroke-width:0.264583;fill:#999999;fill-opacity:1"
       d="M 1.3465118e-8,3.2809591e-8 V 2.6458333 L 0.41627531,2.229558 V 0.41627527 Z"
       sodipodi:nodetypes="ccccc" />
  </g>
</svg>
